{"data":[{"identifier":"146e4438-8a2c-4ca8-9bdb-73aac0b2d152","title":"Einvernehmliche Lösung mit einer als Volleyballtrainer:in tätigen Person","isTopNews":false,"leadText":"Eine als Volleyballtrainer:in tätige Person anerkennt, Verletzungen der psychischen Integrität begangen zu haben. Im Rahmen einer einvernehmlichen Lösung wird sie verwarnt und verpflichtet sich, ein Coaching zu absolvieren.","date":"2025-04-08T00:00:00+02:00","topicsData":[{"identifier":"3fe85b1e-598c-4fee-a925-08eb7a53034e","title":"Ethik","uriPathSegment":"ethik"}],"categoriesData":[{"identifier":"bf0be10a-811b-4f03-a56b-03a592bb792d","title":"Verband","uriPathSegment":"verband"}],"uri":"/de/news/einvernehmliche-loesung-mit-einer-als-volleyballtrainer-in-taetigen-person-146e4438","teaserImage":{"uri":"https://www.volleyball.ch/_Resources/Persistent/e/8/4/4/e844868a9825e81e9b2d87cf9fde1b349a014865/SwisscupDSC_3985-2422x1210.jpg","copyrightNotice":"Lucie Gertsch"},"imagorImageObject":{"src":"https://www.volleyball.ch/_images/bUwO7HX8iVAFL6SvnY3KgU5x9xU=/770x0/smart/filters:format(webp):quality(80)/Persistent/e/8/4/4/e844868a9825e81e9b2d87cf9fde1b349a014865/SwisscupDSC_3985-2422x1210.jpg","alt":"Einvernehmliche Lösung mit einer als Volleyballtrainer:in tätigen Person","srcSet":"https://www.volleyball.ch/_images/bUwO7HX8iVAFL6SvnY3KgU5x9xU=/770x0/smart/filters:format(webp):quality(80)/Persistent/e/8/4/4/e844868a9825e81e9b2d87cf9fde1b349a014865/SwisscupDSC_3985-2422x1210.jpg 770w, https://www.volleyball.ch/_images/GfqSYH058pAr7chbmzo7tgbomwQ=/900x0/smart/filters:format(webp):quality(80)/Persistent/e/8/4/4/e844868a9825e81e9b2d87cf9fde1b349a014865/SwisscupDSC_3985-2422x1210.jpg 900w","sizes":"(max-width: 770px) 770px, (max-width: 900px) 900px, "}},{"identifier":"78c444c6-5883-430c-9d13-44e2b1dabfd9","title":"Volley Amriswil gewinnt den Mobiliar Volley Cup Final 2025","isTopNews":true,"leadText":"Die Thurgauer schlagen Chênois Genève Volleyball in drei dramatischen Sätzen und ziehen somit in Punkto Cup Titeln mit den Genfern gleich. ","date":"2025-04-05T18:30:57+02:00","topicsData":[{"identifier":"8cebcca9-2ac5-4d18-be4e-0729d0c24bee","title":"Swiss Volley Cup","uriPathSegment":"swiss-volley-cup"},{"identifier":"83009310-d71d-4dd6-8d3f-6cec83fd8b94","title":"Swiss Volley Cup Final","uriPathSegment":"swiss-volley-cup-final"}],"categoriesData":[{"identifier":"b1ea35ab-8ca1-49c2-b692-59eb4b151c82","title":"Volleyball nationale Ligen","uriPathSegment":"volleyball-nationale-ligen"},{"identifier":"47d04ccf-7292-434b-8aa9-0b6e270ceae3","title":"Events","uriPathSegment":"events"},{"identifier":"b1ea35ab-8ca1-49c2-b692-59eb4b151c82","title":"Volleyball nationale Ligen","uriPathSegment":"volleyball-nationale-ligen"}],"uri":"/de/news/volley-amriswil-gewinnt-den-mobiliar-volley-cup-final-2025-78c444c6","teaserImage":{"uri":"https://www.volleyball.ch/_Resources/Persistent/0/5/8/3/0583a1947c672235a6f04bc9af35936451604dcc/MDU_20250405_57672-6237x3117-2560x1279.jpg","copyrightNotice":"Melanie Duchene"},"imagorImageObject":{"src":"https://www.volleyball.ch/_images/xdeyuRO9NDG1R5_kzWNVBFJhpJg=/770x0/smart/filters:format(webp):quality(80)/Persistent/0/5/8/3/0583a1947c672235a6f04bc9af35936451604dcc/MDU_20250405_57672-6237x3117-2560x1279.jpg","alt":"Volley Amriswil gewinnt den Mobiliar Volley Cup Final 2025","srcSet":"https://www.volleyball.ch/_images/xdeyuRO9NDG1R5_kzWNVBFJhpJg=/770x0/smart/filters:format(webp):quality(80)/Persistent/0/5/8/3/0583a1947c672235a6f04bc9af35936451604dcc/MDU_20250405_57672-6237x3117-2560x1279.jpg 770w, https://www.volleyball.ch/_images/hrbKJgn-QDm5PwNaLAYWuKU9ENA=/900x0/smart/filters:format(webp):quality(80)/Persistent/0/5/8/3/0583a1947c672235a6f04bc9af35936451604dcc/MDU_20250405_57672-6237x3117-2560x1279.jpg 900w","sizes":"(max-width: 770px) 770px, (max-width: 900px) 900px, "}},{"identifier":"e4f57239-7b0f-46bf-893c-09c432b81705","title":"Dritter Titelgewinn in Folge für Viteos NUC","isTopNews":true,"leadText":"Die Neuenburgerinnen gewinnen den Mobiliar Volley Cup Final gegen Sm’Aesch Pfeffingen in drei Sätzen. Somit jubelt Viteos NUC zum dritten Mal in Folge und zum vierten Mal in der Vereinsgeschichte ob dem Gewinn des Cup-Pokals.","date":"2025-04-05T14:59:03+02:00","topicsData":[{"identifier":"83009310-d71d-4dd6-8d3f-6cec83fd8b94","title":"Swiss Volley Cup Final","uriPathSegment":"swiss-volley-cup-final"},{"identifier":"8cebcca9-2ac5-4d18-be4e-0729d0c24bee","title":"Swiss Volley Cup","uriPathSegment":"swiss-volley-cup"}],"categoriesData":[{"identifier":"47d04ccf-7292-434b-8aa9-0b6e270ceae3","title":"Events","uriPathSegment":"events"},{"identifier":"b1ea35ab-8ca1-49c2-b692-59eb4b151c82","title":"Volleyball nationale Ligen","uriPathSegment":"volleyball-nationale-ligen"},{"identifier":"b1ea35ab-8ca1-49c2-b692-59eb4b151c82","title":"Volleyball nationale Ligen","uriPathSegment":"volleyball-nationale-ligen"}],"uri":"/de/news/dritter-titelgewinn-in-folge-fuer-viteos-nuc-e4f57239","teaserImage":{"uri":"https://www.volleyball.ch/_Resources/Persistent/c/7/0/7/c707cc19dbd466b068a7bc1c6f33f2906592ae69/MDU_20250405_56171-7357x3677-2560x1279.jpg","copyrightNotice":"Melanie Duchene"},"imagorImageObject":{"src":"https://www.volleyball.ch/_images/WWvYEcYMBw5EbT6zaefziqliHkY=/770x0/smart/filters:format(webp):quality(80)/Persistent/c/7/0/7/c707cc19dbd466b068a7bc1c6f33f2906592ae69/MDU_20250405_56171-7357x3677-2560x1279.jpg","alt":"Dritter Titelgewinn in Folge für Viteos NUC","srcSet":"https://www.volleyball.ch/_images/WWvYEcYMBw5EbT6zaefziqliHkY=/770x0/smart/filters:format(webp):quality(80)/Persistent/c/7/0/7/c707cc19dbd466b068a7bc1c6f33f2906592ae69/MDU_20250405_56171-7357x3677-2560x1279.jpg 770w, https://www.volleyball.ch/_images/og5ILtpvCD-L9hxHhdcWx4pShAk=/900x0/smart/filters:format(webp):quality(80)/Persistent/c/7/0/7/c707cc19dbd466b068a7bc1c6f33f2906592ae69/MDU_20250405_56171-7357x3677-2560x1279.jpg 900w","sizes":"(max-width: 770px) 770px, (max-width: 900px) 900px, "}},{"identifier":"1d25410a-9014-4b3c-9c67-6a9b29de4daf","title":"Wer steigt auf, wer steigt ab?","isTopNews":false,"leadText":"Aufgrund diverser Rückzüge hat der Zentralvorstand die Austragungsmodalitäten der Auf-/Abstiegsspiele zwischen der NLB und 1. Liga gestützt auf das Volleyball-Reglement neu definieren müssen. News gibt es auch in Bezug auf die LAS-Regelung.","date":"2025-04-02T12:16:21+02:00","topicsData":[{"identifier":"38837a71-261b-4b01-8398-ecdd4b50abd8","title":"Nationale Ligen","uriPathSegment":"nationale-ligen"},{"identifier":"d8f0a94e-b575-4bad-8885-b9ccd3c7f010","title":"NLA Frauen","uriPathSegment":"nla-frauen"},{"identifier":"2ca57877-c7f8-4cb6-a831-a132bb9b62de","title":"NLA Männer","uriPathSegment":"nla-maenner"}],"categoriesData":[{"identifier":"b1ea35ab-8ca1-49c2-b692-59eb4b151c82","title":"Volleyball nationale Ligen","uriPathSegment":"volleyball-nationale-ligen"},{"identifier":"b1ea35ab-8ca1-49c2-b692-59eb4b151c82","title":"Volleyball nationale Ligen","uriPathSegment":"volleyball-nationale-ligen"},{"identifier":"b1ea35ab-8ca1-49c2-b692-59eb4b151c82","title":"Volleyball nationale Ligen","uriPathSegment":"volleyball-nationale-ligen"}],"uri":"/de/news/wer-steig-auf-wer-steigt-ab-1d25410a","teaserImage":{"uri":"https://www.volleyball.ch/_Resources/Persistent/a/b/2/7/ab27781142870eac2402f151e9b17b68b18991aa/MDU_20240406_833231-4091x2044-2560x1279.jpg","copyrightNotice":"Melanie Duchene"},"imagorImageObject":{"src":"https://www.volleyball.ch/_images/OfYFZOcuGIjZkDUz-DqC8OGVHkY=/770x0/smart/filters:format(webp):quality(80)/Persistent/a/b/2/7/ab27781142870eac2402f151e9b17b68b18991aa/MDU_20240406_833231-4091x2044-2560x1279.jpg","alt":"Wer steigt auf, wer steigt ab?","srcSet":"https://www.volleyball.ch/_images/OfYFZOcuGIjZkDUz-DqC8OGVHkY=/770x0/smart/filters:format(webp):quality(80)/Persistent/a/b/2/7/ab27781142870eac2402f151e9b17b68b18991aa/MDU_20240406_833231-4091x2044-2560x1279.jpg 770w, https://www.volleyball.ch/_images/nFdTniN84vy5ZvpZmQ5fLANpAlA=/900x0/smart/filters:format(webp):quality(80)/Persistent/a/b/2/7/ab27781142870eac2402f151e9b17b68b18991aa/MDU_20240406_833231-4091x2044-2560x1279.jpg 900w","sizes":"(max-width: 770px) 770px, (max-width: 900px) 900px, "}},{"identifier":"aa3c0d1f-9657-43b5-9693-ebb0da929bc7","title":"Wer stemmt am Ende den Pokal in die Höhe?","isTopNews":true,"leadText":"Wenn sich am Samstag vier Teams am Mobiliar Volley Cup Final duellieren, stellt sich die Frage, wer am Ende die begehrte Trophäe hochstemmen darf.","date":"2025-04-02T08:08:19+02:00","topicsData":[{"identifier":"38837a71-261b-4b01-8398-ecdd4b50abd8","title":"Nationale Ligen","uriPathSegment":"nationale-ligen"},{"identifier":"83009310-d71d-4dd6-8d3f-6cec83fd8b94","title":"Swiss Volley Cup Final","uriPathSegment":"swiss-volley-cup-final"},{"identifier":"8cebcca9-2ac5-4d18-be4e-0729d0c24bee","title":"Swiss Volley Cup","uriPathSegment":"swiss-volley-cup"}],"categoriesData":[{"identifier":"b1ea35ab-8ca1-49c2-b692-59eb4b151c82","title":"Volleyball nationale Ligen","uriPathSegment":"volleyball-nationale-ligen"},{"identifier":"47d04ccf-7292-434b-8aa9-0b6e270ceae3","title":"Events","uriPathSegment":"events"},{"identifier":"b1ea35ab-8ca1-49c2-b692-59eb4b151c82","title":"Volleyball nationale Ligen","uriPathSegment":"volleyball-nationale-ligen"},{"identifier":"b1ea35ab-8ca1-49c2-b692-59eb4b151c82","title":"Volleyball nationale Ligen","uriPathSegment":"volleyball-nationale-ligen"}],"uri":"/de/news/wer-stemmt-am-ende-den-pokal-in-die-hoehe-aa3c0d1f","teaserImage":{"uri":"https://www.volleyball.ch/_Resources/Persistent/a/c/f/a/acfafb7786fcad55a67d3f8db5a16a0d7d2652fe/LucieGertsch_DSC_0969-2764x1382-2560x1280.jpg","copyrightNotice":"Lucie Gertsch"},"imagorImageObject":{"src":"https://www.volleyball.ch/_images/gIKA2OYyHuFZRIDUEIJ6TL2l7mE=/770x0/smart/filters:format(webp):quality(80)/Persistent/a/c/f/a/acfafb7786fcad55a67d3f8db5a16a0d7d2652fe/LucieGertsch_DSC_0969-2764x1382-2560x1280.jpg","alt":"Wer stemmt am Ende den Pokal in die Höhe?","srcSet":"https://www.volleyball.ch/_images/gIKA2OYyHuFZRIDUEIJ6TL2l7mE=/770x0/smart/filters:format(webp):quality(80)/Persistent/a/c/f/a/acfafb7786fcad55a67d3f8db5a16a0d7d2652fe/LucieGertsch_DSC_0969-2764x1382-2560x1280.jpg 770w, https://www.volleyball.ch/_images/S0cm-7zCp9ELt5EGmq_6bUsD-Hs=/900x0/smart/filters:format(webp):quality(80)/Persistent/a/c/f/a/acfafb7786fcad55a67d3f8db5a16a0d7d2652fe/LucieGertsch_DSC_0969-2764x1382-2560x1280.jpg 900w","sizes":"(max-width: 770px) 770px, (max-width: 900px) 900px, "}},{"identifier":"1be76a48-c287-4a3c-9146-968331600c48","title":"Fabiana Mottis hat bei Allianz MTV Stuttgart unterschrieben","isTopNews":false,"leadText":"Die Schweizer Nationalspielerin Fabiana Mottis wechselt kommende Saison 2025/26 zum deutschen Topteam Allianz MTV Stuttgart in die erste Bundesliga. Die 21-jährige Libera wird in Stuttgart ihre erste Saison als Auslandprofi bestreiten.","date":"2025-04-01T10:50:57+02:00","topicsData":[{"identifier":"49a4176b-e3a7-42cc-a253-51b99ba4675f","title":"#SwissVolleyProsAbroad","uriPathSegment":"swiss-volley-pros-abroad"},{"identifier":"212537a5-72c9-4882-8277-c5e9618c3687","title":"Volleyball Nationalteam Frauen","uriPathSegment":"volleyball-nationalteam-frauen"}],"categoriesData":[{"identifier":"b2f8bc50-119a-4470-b5fe-3986cf8928c5","title":"Volleyball Nationalteams","uriPathSegment":"volleyball-nationalteams"},{"identifier":"b2f8bc50-119a-4470-b5fe-3986cf8928c5","title":"Volleyball Nationalteams","uriPathSegment":"volleyball-nationalteams"}],"uri":"/de/news/fabiana-mottis-hat-bei-allianz-mtv-stuttgart-unterschrieben-1be76a48","teaserImage":{"uri":"https://www.volleyball.ch/_Resources/Persistent/c/c/9/0/cc90c12995b3b4378395a8f6cb33f6a8bb6a518c/Header_Mottis_Fabiana_4-3072x1536-2560x1280.jpg","copyrightNotice":"Ulf Schiller"},"imagorImageObject":{"src":"https://www.volleyball.ch/_images/cAtfkvNwbUs4ZBsk9A1jEygZobU=/770x0/smart/filters:format(webp):quality(80)/Persistent/c/c/9/0/cc90c12995b3b4378395a8f6cb33f6a8bb6a518c/Header_Mottis_Fabiana_4-3072x1536-2560x1280.jpg","alt":"Fabiana Mottis hat bei Allianz MTV Stuttgart unterschrieben","srcSet":"https://www.volleyball.ch/_images/cAtfkvNwbUs4ZBsk9A1jEygZobU=/770x0/smart/filters:format(webp):quality(80)/Persistent/c/c/9/0/cc90c12995b3b4378395a8f6cb33f6a8bb6a518c/Header_Mottis_Fabiana_4-3072x1536-2560x1280.jpg 770w, https://www.volleyball.ch/_images/9WuRwM3k-UN6HXQQ1kKNzmtHz-M=/900x0/smart/filters:format(webp):quality(80)/Persistent/c/c/9/0/cc90c12995b3b4378395a8f6cb33f6a8bb6a518c/Header_Mottis_Fabiana_4-3072x1536-2560x1280.jpg 900w","sizes":"(max-width: 770px) 770px, (max-width: 900px) 900px, "}},{"identifier":"3da439e7-6aab-4456-9ef1-5737b1627028","title":"Wie wird eigentlich entschieden, wer einen Cupfinal pfeifen darf?","isTopNews":false,"leadText":"Am Mobiliar Volley Cup Final sind sie im Hintergrund und je weniger man sie wahrnimmt, desto besser machen sie in der Regel ihren Job: die Schiedsrichterinnen und Schiedsrichter. Wer am diesjährigen Cupfinal im Einsatz steht und wie dies überhaupt entschieden wird, erklärt Philippe Weinberger von der Schweizerischen Schiedsrichterkommission (SSK).","date":"2025-04-01T09:06:53+02:00","topicsData":[{"identifier":"83009310-d71d-4dd6-8d3f-6cec83fd8b94","title":"Swiss Volley Cup Final","uriPathSegment":"swiss-volley-cup-final"},{"identifier":"7ae9176e-1e54-4cdb-a9c5-14d65a1015a2","title":"Schiedsrichter:innen","uriPathSegment":"schiedsrichter-innen"}],"categoriesData":[{"identifier":"47d04ccf-7292-434b-8aa9-0b6e270ceae3","title":"Events","uriPathSegment":"events"},{"identifier":"b1ea35ab-8ca1-49c2-b692-59eb4b151c82","title":"Volleyball nationale Ligen","uriPathSegment":"volleyball-nationale-ligen"},{"identifier":"bf0be10a-811b-4f03-a56b-03a592bb792d","title":"Verband","uriPathSegment":"verband"}],"uri":"/de/news/wie-wird-eigentlich-entschieden-wer-einen-cupfinal-pfeifen-darf-3da439e7","teaserImage":{"uri":"https://www.volleyball.ch/_Resources/Persistent/7/5/f/8/75f89f3b095865d9a5a68ca3c7d54d221b097c27/VOLLEYCUP_FINAL_20230325_35273_Melanie%20Duchene-3072x1536-2560x1280.jpg","copyrightNotice":"Melanie Duchene"},"imagorImageObject":{"src":"https://www.volleyball.ch/_images/biaPrbxaTP013dRQnTcn77GyseQ=/770x0/smart/filters:format(webp):quality(80)/Persistent/7/5/f/8/75f89f3b095865d9a5a68ca3c7d54d221b097c27/VOLLEYCUP_FINAL_20230325_35273_Melanie%20Duchene-3072x1536-2560x1280.jpg","alt":"Wie wird eigentlich entschieden, wer einen Cupfinal pfeifen darf?","srcSet":"https://www.volleyball.ch/_images/biaPrbxaTP013dRQnTcn77GyseQ=/770x0/smart/filters:format(webp):quality(80)/Persistent/7/5/f/8/75f89f3b095865d9a5a68ca3c7d54d221b097c27/VOLLEYCUP_FINAL_20230325_35273_Melanie%20Duchene-3072x1536-2560x1280.jpg 770w, https://www.volleyball.ch/_images/FrxJY0qfIiYK5XbEw9dvz2wnm3o=/900x0/smart/filters:format(webp):quality(80)/Persistent/7/5/f/8/75f89f3b095865d9a5a68ca3c7d54d221b097c27/VOLLEYCUP_FINAL_20230325_35273_Melanie%20Duchene-3072x1536-2560x1280.jpg 900w","sizes":"(max-width: 770px) 770px, (max-width: 900px) 900px, "}},{"identifier":"cfa348dc-768e-43a9-a26f-7b78709eb861","title":"Für diese 1. Liga-Teams steht die NLB vor der Tür","isTopNews":false,"leadText":"Am Wochenende hat das Final4 der 1. Liga stattgefunden. 8 Teams pro Geschlecht haben um den Sieg und um die Möglichkeit gespielt, in die zweithöchste Schweizer Liga aufzusteigen.","date":"2025-03-31T15:24:05+02:00","topicsData":[{"identifier":"38837a71-261b-4b01-8398-ecdd4b50abd8","title":"Nationale Ligen","uriPathSegment":"nationale-ligen"}],"categoriesData":[{"identifier":"b1ea35ab-8ca1-49c2-b692-59eb4b151c82","title":"Volleyball nationale Ligen","uriPathSegment":"volleyball-nationale-ligen"}],"uri":"/de/news/fuer-diese-1-liga-teams-steht-die-nlb-vor-der-tuer-cfa348dc","teaserImage":{"uri":"https://www.volleyball.ch/_Resources/Persistent/0/8/a/3/08a3c17aaf2512dddeb930ca96171f3cf75ddb30/2025_03_30_Kanti_BTV-119-1421x711.jpg","copyrightNotice":"zVg / màd"},"imagorImageObject":{"src":"https://www.volleyball.ch/_images/zB2RmswEpOpR8On7K2ejP7meaQs=/770x0/smart/filters:format(webp):quality(80)/Persistent/0/8/a/3/08a3c17aaf2512dddeb930ca96171f3cf75ddb30/2025_03_30_Kanti_BTV-119-1421x711.jpg","alt":"Für diese 1. Liga-Teams steht die NLB vor der Tür","srcSet":"https://www.volleyball.ch/_images/zB2RmswEpOpR8On7K2ejP7meaQs=/770x0/smart/filters:format(webp):quality(80)/Persistent/0/8/a/3/08a3c17aaf2512dddeb930ca96171f3cf75ddb30/2025_03_30_Kanti_BTV-119-1421x711.jpg 770w, https://www.volleyball.ch/_images/MQa2C3NuffznpI12__hIycpwQNg=/900x0/smart/filters:format(webp):quality(80)/Persistent/0/8/a/3/08a3c17aaf2512dddeb930ca96171f3cf75ddb30/2025_03_30_Kanti_BTV-119-1421x711.jpg 900w","sizes":"(max-width: 770px) 770px, (max-width: 900px) 900px, "}}],"meta":{"count":353,"page":0,"perPage":8,"hasMore":true}}
